…
Will have to move this to the most appropriate section later, BUT, we’ll
want to use similar code to look at how this varies across groupings

``` r
impact_data %>%
  select(country,lending_group,greatest_population_reduction_kg_co2e) %>%
  group_by(lending_group) %>%
  arrange(desc(greatest_population_reduction_kg_co2e)) 
```

    ## # A tibble: 120 × 3
    ## # Groups:   lending_group [4]
    ##    country           lending_group greatest_population_reduction_kg_co2e
    ##    <chr>             <chr>                                         <dbl>
    ##  1 India             Lower-Middle                           17545637941.
    ##  2 Indonesia         Lower-Middle                            3073334989.
    ##  3 Colombia          Upper-Middle                            1134569816.
    ##  4 Pakistan          Lower-Middle                            1102548993.
    ##  5 Philippines (the) Lower-Middle                             859745216.
    ##  6 Afghanistan       Low                                      474366684.
    ##  7 Ethiopia          Low                                      473875009.
    ##  8 Thailand          Upper-Middle                             410833184.
    ##  9 Malaysia          Upper-Middle                             343323755.
    ## 10 Ecuador           Upper-Middle                             267953160.
    ## # … with 110 more rows
…
